<?xml version="1.0" encoding="UTF-8"?>
<session version="1.0">
<refactoring comment="Encapsulate field &apos;objets.Voiture.vitesse&apos; in &apos;objets.Voiture&apos;&#x0D;&#x0A;- Original project: &apos;CorrectionVoiture&apos;&#x0D;&#x0A;- Original element: &apos;objets.Voiture.vitesse&apos;&#x0D;&#x0A;- Getter method name: &apos;getVitesse&apos;&#x0D;&#x0A;- Setter method name: &apos;setVitesse&apos;&#x0D;&#x0A;- Field visibility: &apos;public&apos;&#x0D;&#x0A;- Use getter and setter methods in declaring type" comments="false" declaring="true" description="Encapsulate field &apos;vitesse&apos;" flags="589830" getter="getVitesse" id="org.eclipse.jdt.ui.self.encapsulate" input="/src&lt;objets{Voiture.java[Voiture^vitesse" insertion="3" setter="setVitesse" stamp="1569921530236" version="1.0" visibility="1"/>
</session>